Introduction
…
library(tidyverse)
source("http://www.openintro.org/stat/data/cdc.R")
CDC <- tbl_df(cdc)
class(cdc)

## [1] "data.frame"

Explore the data

You can see and inspect the data set comfortably in RStudio with the View() command, which invokes a spreadsheet-style data viewer on a matrix-like R object.

CDC

## # A tibble: 20,000 x 9
##    genhlth   exerany hlthplan smoke100 height weight wtdesire   age gender
##    <fct>       <dbl>    <dbl>    <dbl>  <dbl>  <int>    <int> <int> <fct> 
##  1 good            0        1        0     70    175      175    77 m     
##  2 good            0        1        1     64    125      115    33 f     
##  3 good            1        1        1     60    105      105    49 f     
##  4 good            1        1        0     66    132      124    42 f     
##  5 very good       0        1        0     61    150      130    55 f     
##  6 very good       1        1        0     64    114      114    55 f     
##  7 very good       1        1        0     71    194      185    31 m     
##  8 very good       0        1        0     67    170      160    45 m     
##  9 good            0        1        1     65    150      130    27 f     
## 10 good            1        1        0     70    180      170    44 m     
## # ... with 19,990 more rows
…
